<svg width="51" height="51" viewBox="0 0 51 51" fill="none" xmlns="http://www.w3.org/2000/svg">
<g id="vuesax/linear/document-upload">
<g id="vuesax/linear/document-upload_2">
<g id="document-upload">
<path id="Vector" d="M19.125 36.125V23.375L14.875 27.625" stroke="#FEFEFE" stroke-width="1.5" stroke-linecap="round" stroke-linejoin="round"/>
<path id="Vector_2" d="M19.125 23.375L23.375 27.625" stroke="#FEFEFE" stroke-width="1.5" stroke-linecap="round" stroke-linejoin="round"/>
<path id="Vector_3" d="M46.75 21.25V31.875C46.75 42.5 42.5 46.75 31.875 46.75H19.125C8.5 46.75 4.25 42.5 4.25 31.875V19.125C4.25 8.5 8.5 4.25 19.125 4.25H29.75" stroke="#FEFEFE" stroke-width="1.5" stroke-linecap="round" stroke-linejoin="round"/>
<path id="Vector_4" d="M46.75 21.25H38.25C31.875 21.25 29.75 19.125 29.75 12.75V4.25L46.75 21.25Z" stroke="#FEFEFE" stroke-width="1.5" stroke-linecap="round" stroke-linejoin="round"/>
</g>
</g>
</g>
</svg>
